{
  "name": "mta",
  "title": "Chronicles of Darkness 2e",
  "description": "2nd edition of the Chronicles of Darkness system by White Wolf.",
  "version": "0.7.1",
  "author": "SoulCake",
  "minimumCoreVersion": "9",
  "compatibleCoreVersion": "9",
  "url": "https://gitlab.com/MarlQ/mta",
  "manifest": "https://gitlab.com/MarlQ/mta/-/raw/master/system.json",
  "download": "https://gitlab.com/MarlQ/mta/-/archive/master/mta-master.zip",
  "esmodules": ["module/mta.js"],
  "styles": ["styles/default.css", "styles/override.css"],
  "packs": [],
  "languages": [
    {
      "lang": "en",
      "name": "English",
      "path": "lang/en.json"
    },
    {
      "lang": "fr",
      "name": "French",
      "path": "lang/fr.json"
    }
  ],
  "initiative": "1d10 + @derivedTraits.initiativeMod.computed",
  "gridDistance": 1,
  "gridUnits": "m",
  "primaryTokenAttribute": "health"
}
